[Header]
Local Run Manager Analysis Id,
Experiment Name,YourRun
Date,2021-10-30
Module,GenerateFASTQ - 2.0.0
Workflow,GenerateFASTQ
Library Prep Kit,Nextera DNA CD Indexes - 96 Indexes Plated
Chemistry,Amplicon

[Reads]
151
151

[Settings]
adapter,CTGTCTCTTATACACATCT

[Data]
Sample_ID,Sample_Name,Description,Index_Plate_Well,index,I7_Index_ID,index2,I5_Index_ID,Sample_Project
Sample_1,Sample_1,,B05,TAGCGCTC,H723,CTCCTTAC,H505,
Sample_2,Sample_2,,B06,GGACTCCT,H705,TATGCAGT,H506,
Sample_3,Sample_3,,B07,GTAGAGGA,H712,TCTTACGC,H517,
Sample_4,Sample_4,,B08,CGGAGCCT,H720,CTCCTTAC,H505,
Sample_5,Sample_5,,B09,TAGGCATG,H706,TATGCAGT,H506,
